0	100	100	100	100	100	100	100	100	100	100	100	100	100	100	100	100	100	100	100	100	100	100	100	100	100	100	100	100	100	100	100	100	100	100	100	100	100	100	100	100	100	100	100	100	100	100	100	100	100	100	0	0	0	0	0	0	0	0	0	0	0	0	0	0	0	0	0	0	0	0	0	0	0	0	0	0	0	0	0	0	0	0	0	0	0	0	0	0	0	0	0	0	0	0	0	0	0	0	0	0	0	0	0	0	0	0	0	0	0	0	0	0	0	0	0	0	0	0	0	0	0	0	0	0	0	0	0	0	0	0	0	0	0	0	0	0	0	0	0	0	0	0	0	0	0	0	0	0	0	0	100	100	100	100	100	100	100	100	100	100	100	100	100	100	100	100	100	100	100	100	100	100	100	100	100	100	100	100	100	100	100	100	100	100	100	100	100	100	100	100	100	100	100	100	100	100	100	100	100	100	
0.48	101	97	103	110	106	85	96	106	101	92	114	82	113	96	99	103	112	90	100	91	99	106	90	118	97	95	99	105	97	94	100	111	96	107	85	97	104	107	105	95	93	98	113	96	92	104	106	97	91	77	31	12	0	0	0	0	0	0	0	0	0	0	0	0	0	0	0	0	0	0	0	0	0	0	0	0	0	0	0	0	0	0	0	0	0	0	0	0	0	0	0	0	0	0	0	0	0	0	0	0	0	0	0	0	0	0	0	0	0	0	0	0	0	0	0	0	0	0	0	0	0	0	0	0	0	0	0	0	0	0	0	0	0	0	0	0	0	0	0	0	0	0	0	0	0	0	0	1	4	23	76	85	101	104	110	84	97	94	109	97	106	103	95	90	111	93	107	104	93	97	100	101	98	107	99	103	93	92	111	95	111	93	103	95	90	101	112	91	108	90	99	102	109	92	100	110	107	87	113	90	
0.96	96	96	110	97	105	92	107	99	95	103	91	104	109	100	120	76	111	86	109	96	96	100	102	110	100	84	110	89	102	112	94	110	100	100	86	90	122	96	91	107	104	90	101	102	97	99	113	99	92	66	51	22	7	1	0	0	0	0	0	0	0	0	0	0	0	0	0	0	0	0	0	0	0	0	0	0	0	0	0	0	0	0	0	0	0	0	0	0	0	0	0	0	0	0	0	0	0	0	0	0	0	0	0	0	0	0	0	0	0	0	0	0	0	0	0	0	0	0	0	0	0	0	0	0	0	0	0	0	0	0	0	0	0	0	0	0	0	0	0	0	0	0	0	0	0	0	0	3	4	20	60	81	93	117	86	89	101	100	103	107	102	96	91	95	105	93	115	111	89	92	96	112	91	113	88	98	100	90	116	96	106	96	113	91	104	96	92	91	111	103	103	83	108	88	106	105	115	83	107	99	
1.44	84	119	96	103	106	91	100	107	110	88	84	112	103	99	111	92	111	96	87	101	113	99	93	121	86	86	105	85	95	107	114	108	97	90	86	113	108	106	92	98	101	96	106	103	96	93	106	94	104	71	54	42	18	5	0	0	0	0	0	0	0	0	0	0	0	0	0	0	0	0	0	0	0	0	0	0	0	0	0	0	0	0	0	0	0	0	0	0	0	0	0	0	0	0	0	0	0	0	0	0	0	0	0	0	0	0	0	0	0	0	0	0	0	0	0	0	0	0	0	0	0	0	0	0	0	0	0	0	0	0	0	0	0	0	0	0	0	0	0	0	0	0	0	0	0	1	0	3	7	25	47	56	79	103	83	112	95	98	108	102	96	98	93	98	98	96	114	113	88	94	101	110	98	107	86	104	105	91	97	102	102	104	89	103	104	115	89	103	88	102	100	100	96	99	107	92	95	108	110	95	
1.92	88	105	104	110	102	94	91	97	105	100	101	99	107	98	98	115	98	101	97	100	102	89	120	99	93	90	86	102	86	110	108	107	113	80	106	102	100	105	94	98	103	107	91	109	76	107	102	104	101	74	64	56	32	13	3	0	0	0	0	0	0	0	0	0	0	0	0	0	0	0	0	0	0	0	0	0	0	0	0	0	0	0	0	0	0	0	0	0	0	0	0	0	0	0	0	0	0	0	0	0	0	0	0	0	0	0	0	0	0	0	0	0	0	0	0	0	0	0	0	0	0	0	0	0	0	0	0	0	0	0	0	0	0	0	0	0	0	0	0	0	0	0	0	0	0	1	0	2	5	21	35	38	89	84	90	105	90	94	110	88	110	95	109	90	104	89	103	124	83	110	82	112	94	110	93	101	102	97	99	86	99	116	87	103	113	99	95	112	95	95	97	86	115	87	99	100	102	111	95	107	
2.4	94	114	100	84	123	90	95	87	93	112	104	97	116	102	98	97	110	109	89	91	96	114	106	98	103	98	85	86	84	116	101	100	117	97	104	83	108	104	98	102	108	97	85	101	89	101	103	113	99	78	65	66	51	30	10	2	0	0	0	0	0	0	0	0	0	0	0	0	0	0	0	0	0	0	0	0	0	0	0	0	0	0	0	0	0	0	0	0	0	0	0	0	0	0	0	0	0	0	0	0	0	0	0	0	0	0	0	0	0	0	0	0	0	0	0	0	0	0	0	0	0	0	0	0	0	0	0	0	0	0	0	0	0	0	0	0	0	0	0	0	0	0	0	0	0	1	0	5	4	16	21	34	66	82	86	98	79	96	102	99	116	95	100	96	94	91	110	108	107	106	94	111	87	96	97	104	99	89	102	98	93	106	104	92	96	115	113	105	92	82	115	82	116	86	93	110	100	100	107	101	
2.88	92	119	91	100	121	84	97	76	104	111	110	97	105	96	102	99	109	105	95	104	94	96	111	103	91	91	104	92	86	100	100	111	107	97	98	100	98	106	90	102	90	126	89	97	89	85	108	122	102	92	71	54	69	44	19	11	2	0	0	0	0	0	0	0	0	0	0	0	0	0	0	0	0	0	0	0	0	0	0	0	0	0	0	0	0	0	0	0	0	0	0	0	0	0	0	0	0	0	0	0	0	0	0	0	0	0	0	0	0	0	0	0	0	0	0	0	0	0	0	0	0	0	0	0	0	0	0	0	0	0	0	0	0	0	0	0	0	0	0	0	0	0	0	0	0	1	2	3	4	10	14	31	51	66	70	100	104	82	89	107	104	94	100	96	86	105	88	120	119	98	109	95	90	107	93	105	95	93	107	97	93	107	96	86	106	104	116	99	94	92	100	98	104	100	93	105	101	103	99	105	
3.36	110	100	95	101	108	87	100	91	99	111	106	107	101	100	111	89	90	103	98	101	113	86	103	101	102	99	91	88	101	88	105	103	101	102	111	97	89	103	105	94	86	115	106	85	113	89	100	114	96	97	97	52	74	55	46	17	6	0	1	1	0	0	0	0	0	0	0	0	0	0	0	0	0	0	0	0	0	0	0	0	0	0	0	0	0	0	0	0	0	0	0	0	0	0	0	0	0	0	0	0	0	0	0	0	0	0	0	0	0	0	0	0	0	0	0	0	0	0	0	0	0	0	0	0	0	0	0	0	0	0	0	0	0	0	0	0	0	0	0	0	0	0	0	0	1	1	1	2	4	7	8	16	36	57	69	83	89	89	87	105	99	117	90	86	92	95	107	107	113	105	119	100	97	88	91	102	95	104	100	85	105	95	107	102	104	102	104	101	86	106	93	97	103	104	96	105	92	101	103	107	
3.84	109	103	95	104	89	98	98	90	113	104	101	121	92	90	117	84	111	101	89	104	92	114	92	104	101	93	103	85	107	89	96	99	99	101	113	97	94	106	100	98	91	99	100	96	95	98	105	116	112	90	90	75	79	74	46	28	11	9	8	0	1	0	0	0	0	0	0	0	0	0	0	0	0	0	0	0	0	0	0	0	0	0	0	0	0	0	0	0	0	0	0	0	0	0	0	0	0	0	0	0	0	0	0	0	0	0	0	0	0	0	0	0	0	0	0	0	0	0	0	0	0	0	0	0	0	0	0	0	0	0	0	0	0	0	0	0	0	0	0	0	0	0	0	0	0	1	1	0	2	5	6	16	21	34	59	81	79	86	91	104	92	102	99	87	96	107	87	110	115	112	112	108	87	94	90	86	106	86	106	106	88	105	114	92	94	107	117	89	104	92	100	105	94	103	100	90	103	102	100	108	
4.32	108	100	99	95	96	118	85	88	99	109	113	119	95	87	108	105	97	109	96	101	91	91	92	106	95	93	114	88	96	102	101	92	101	107	102	106	95	104	90	99	95	100	105	105	85	105	96	114	99	99	82	100	77	81	61	40	26	13	8	6	3	0	0	0	0	0	0	0	0	0	0	0	0	0	0	0	0	0	0	0	0	0	0	0	0	0	0	0	0	0	0	0	0	0	0	0	0	0	0	0	0	0	0	0	0	0	0	0	0	0	0	0	0	0	0	0	0	0	0	0	0	0	0	0	0	0	0	0	0	0	0	0	0	0	0	0	0	0	0	0	0	0	0	0	0	1	1	1	2	2	12	10	17	20	55	67	66	74	81	97	106	97	99	99	91	92	95	101	117	116	112	100	106	90	84	99	81	88	113	108	104	91	108	103	94	92	124	90	104	101	93	98	94	98	109	85	103	102	117	98	
4.8	109	105	83	104	102	101	97	99	103	111	95	118	90	97	106	98	107	102	100	113	71	98	102	93	100	112	91	97	97	92	107	91	99	114	112	99	87	88	87	111	105	90	117	94	102	86	111	100	109	89	97	92	91	83	87	53	33	23	20	5	2	1	1	1	0	0	0	0	0	0	0	0	0	0	0	0	0	0	0	0	0	0	0	0	0	0	0	0	0	0	0	0	0	0	0	0	0	0	0	0	0	0	0	0	0	0	0	0	0	0	0	0	0	0	0	0	0	0	0	0	0	0	0	0	0	0	0	0	0	0	0	0	0	0	0	0	0	0	0	0	0	0	0	0	0	1	0	1	2	3	4	10	9	19	30	46	60	61	83	92	94	95	109	104	89	88	91	103	119	124	101	107	87	95	105	90	84	91	99	127	88	100	86	111	100	104	108	102	99	96	98	94	93	107	103	88	102	122	90	106	
5.28	116	107	86	82	101	103	111	93	102	119	101	103	100	83	95	117	108	108	96	97	88	91	102	92	102	111	103	84	104	93	98	100	85	121	108	88	106	85	85	101	115	101	98	102	98	100	107	104	104	81	88	117	92	89	84	72	43	37	21	16	7	7	0	0	1	0	0	0	0	0	0	0	0	0	0	0	0	0	0	0	0	0	0	0	0	0	0	0	0	0	0	0	0	0	0	0	0	0	0	0	0	0	0	0	0	0	0	0	0	0	0	0	0	0	0	0	0	0	0	0	0	0	0	0	0	0	0	0	0	0	0	0	0	0	0	0	0	0	0	0	0	0	0	0	0	1	0	0	0	1	2	9	12	8	33	33	44	58	66	95	83	99	100	100	89	88	92	117	111	114	116	99	78	94	97	99	93	93	97	118	105	96	89	98	107	107	109	96	101	91	104	85	99	110	88	107	106	105	95	104	
5.76	120	102	78	96	100	104	110	73	116	114	105	117	94	87	99	105	103	120	102	90	90	87	92	100	104	106	93	93	108	90	103	88	97	102	105	114	95	83	101	87	108	102	116	98	104	100	96	104	102	90	102	104	86	89	96	71	70	37	32	17	14	11	4	2	2	0	0	0	0	0	0	0	0	0	0	0	0	0	0	0	0	0	0	0	0	0	0	0	0	0	0	0	0	0	0	0	0	0	0	0	0	0	0	0	0	0	0	0	0	0	0	0	0	0	0	0	0	0	0	0	0	0	0	0	0	0	0	0	0	0	0	0	0	0	0	0	0	0	0	0	0	0	0	0	0	1	0	0	1	0	2	6	7	12	19	24	25	66	55	77	85	92	104	98	83	89	112	103	108	119	114	89	78	92	101	92	113	89	107	111	100	88	92	99	112	107	101	106	91	101	87	96	103	98	95	104	111	113	100	92	
6.24	107	108	91	88	105	94	92	113	101	115	106	117	97	91	75	100	115	102	131	101	80	83	98	94	93	108	98	111	99	97	86	86	109	99	101	108	96	91	103	101	100	96	108	101	101	101	106	111	87	101	97	96	110	85	93	81	75	61	51	23	21	15	10	3	6	2	0	2	0	0	0	0	0	0	0	0	0	0	0	0	0	0	0	0	0	0	0	0	0	0	0	0	0	0	0	0	0	0	0	0	0	0	0	0	0	0	0	0	0	0	0	0	0	0	0	0	0	0	0	0	0	0	0	0	0	0	0	0	0	0	0	0	0	0	0	0	0	0	0	0	0	0	0	0	0	2	0	0	0	0	1	2	4	5	10	20	31	32	47	59	79	94	86	95	99	98	86	118	118	102	95	89	103	84	99	114	97	94	93	102	101	98	102	91	104	112	108	108	89	94	90	88	103	105	102	109	102	97	95	111	
6.72	106	101	95	98	88	108	103	92	99	107	117	124	95	89	77	103	110	103	112	113	90	84	101	85	100	106	99	111	93	89	98	77	102	123	98	109	89	94	97	94	105	109	102	96	111	95	104	116	95	98	91	97	106	94	86	95	83	80	42	40	26	25	17	9	10	1	4	4	0	0	0	0	0	0	0	0	0	0	0	0	0	0	0	0	0	0	0	0	0	0	0	0	0	0	0	0	0	0	0	0	0	0	0	0	0	0	0	0	0	0	0	0	0	0	0	0	0	0	0	0	0	0	0	0	0	0	0	0	0	0	0	0	0	0	0	0	0	0	0	0	0	0	0	0	0	0	0	0	1	0	0	0	7	2	5	14	26	26	37	57	62	84	92	77	101	98	84	112	106	115	74	103	101	87	98	107	103	97	115	89	99	90	89	112	99	109	106	93	106	101	88	88	100	96	105	105	105	98	109	102	
7.2	103	104	98	100	96	92	99	104	100	115	112	106	99	96	92	104	96	96	100	110	101	93	93	99	93	111	98	87	96	111	100	86	102	94	105	112	98	75	99	99	119	101	117	100	86	106	109	102	101	96	100	99	110	89	72	96	95	79	66	47	44	32	37	15	14	4	4	5	2	0	0	0	0	0	0	0	0	0	0	0	0	0	0	0	0	0	0	0	0	0	0	0	0	0	0	0	0	0	0	0	0	0	0	0	0	0	0	0	0	0	0	0	0	0	0	0	0	0	0	0	0	0	0	0	0	0	0	0	0	0	0	0	0	0	0	0	0	0	0	0	0	0	0	0	0	0	0	0	0	0	0	2	3	2	6	6	16	21	25	35	61	72	75	81	87	96	104	87	110	106	87	105	98	93	87	117	101	97	90	103	96	90	95	117	111	90	110	97	110	93	87	98	104	93	92	106	92	116	103	106	
7.68	107	97	104	108	79	100	98	107	100	114	111	104	94	102	101	95	92	94	110	104	98	94	93	86	101	120	96	95	93	109	98	90	95	91	117	104	97	77	93	113	114	102	120	95	73	112	109	108	112	85	100	100	101	91	85	111	80	94	62	55	64	38	49	31	14	14	4	3	3	1	1	0	0	0	0	0	0	0	0	0	0	0	0	0	0	0	0	0	0	0	0	0	0	0	0	0	0	0	0	0	0	0	0	0	0	0	0	0	0	0	0	0	0	0	0	0	0	0	0	0	0	0	0	0	0	0	0	0	0	0	0	0	0	0	0	0	0	0	0	0	0	0	0	0	0	0	0	0	0	0	0	0	2	1	2	7	3	19	17	34	39	66	69	81	70	92	96	84	109	108	88	103	112	90	88	112	98	103	78	116	96	92	95	111	107	99	113	84	101	101	98	109	81	104	97	94	92	116	94	117	
8.16	99	103	107	95	109	94	84	111	100	117	103	111	97	112	101	94	78	87	101	107	115	86	84	95	99	116	103	93	93	103	108	93	95	106	94	103	100	83	97	113	108	104	106	95	90	113	114	108	96	86	99	105	97	88	92	108	100	77	72	67	64	63	47	45	22	14	11	6	3	0	1	0	0	0	0	0	0	0	0	0	0	0	0	0	0	0	0	0	0	0	0	0	0	0	0	0	0	0	0	0	0	0	0	0	0	0	0	0	0	0	0	0	0	0	0	0	0	0	0	0	0	0	0	0	0	0	0	0	0	0	0	0	0	0	0	0	0	0	0	0	0	0	0	0	0	0	0	0	0	0	1	0	1	1	1	3	8	12	10	30	36	53	49	58	85	81	91	96	106	104	97	88	108	96	95	103	95	92	103	105	110	91	96	105	99	97	103	100	101	102	91	115	100	96	93	91	97	93	113	109	
8.64	98	113	93	100	100	88	101	105	110	106	111	113	97	108	106	79	89	93	95	114	105	85	83	104	98	93	112	94	103	97	104	98	96	104	106	99	100	89	111	104	111	82	107	88	99	119	116	99	89	91	120	91	83	88	108	95	113	82	75	76	80	76	56	48	35	29	15	10	10	0	0	0	0	0	0	0	0	0	0	0	0	0	0	0	0	0	0	0	0	0	0	0	0	0	0	0	0	0	0	0	0	0	0	0	0	0	0	0	0	0	0	0	0	0	0	0	0	0	0	0	0	0	0	0	0	0	0	0	0	0	0	0	0	0	0	0	0	0	0	0	0	0	0	0	0	0	0	0	0	0	1	0	1	0	0	2	6	8	11	14	31	28	44	50	64	82	80	95	98	98	101	105	98	99	92	99	101	90	93	109	111	98	100	95	88	110	98	96	100	106	99	109	97	104	83	97	104	101	106	103	
9.12	90	113	105	83	114	97	92	102	109	109	107	104	98	123	100	87	98	77	95	105	116	91	93	94	91	92	114	90	96	105	100	98	102	108	110	103	89	103	96	114	100	88	99	96	105	107	117	95	105	89	94	97	95	92	105	91	112	98	75	88	71	85	81	57	58	28	28	20	12	3	0	0	0	0	0	0	0	0	0	0	0	0	0	0	0	0	0	0	0	0	0	0	0	0	0	0	0	0	0	0	0	0	0	0	0	0	0	0	0	0	0	0	0	0	0	0	0	0	0	0	0	0	0	0	0	0	0	0	0	0	0	0	0	0	0	0	0	0	0	0	0	0	0	0	0	0	0	0	0	0	1	0	0	1	0	0	4	7	9	11	13	27	21	43	55	67	72	85	100	104	90	90	93	108	96	95	105	92	90	108	101	109	101	95	89	103	101	105	97	101	98	101	106	100	96	89	102	113	107	95	
9.6	100	95	111	105	98	91	93	103	104	111	104	101	97	117	103	97	97	75	92	121	102	91	97	104	86	111	96	93	98	101	111	83	112	99	107	92	96	107	107	100	98	105	97	93	108	106	116	94	89	99	93	100	97	96	98	100	106	100	81	88	84	105	73	59	66	43	35	27	22	8	0	1	0	0	0	0	0	0	0	0	0	0	0	0	0	0	0	0	0	0	0	0	0	0	0	0	0	0	0	0	0	0	0	0	0	0	0	0	0	0	0	0	0	0	0	0	0	0	0	0	0	0	0	0	0	0	0	0	0	0	0	0	0	0	0	0	0	0	0	0	0	0	0	0	0	0	0	0	0	0	0	0	0	0	1	2	0	4	6	5	12	13	18	35	39	60	64	76	86	98	98	96	96	107	94	96	95	109	84	99	107	108	103	95	99	96	110	95	95	98	105	98	95	104	105	84	94	121	103	97	
10.08	93	100	127	92	112	87	76	105	106	115	122	87	100	110	120	94	77	88	88	115	96	106	89	97	84	110	106	97	108	94	98	107	96	90	105	93	110	104	104	103	107	84	108	87	118	104	102	101	96	93	101	98	99	93	102	84	114	90	103	85	83	108	83	67	73	82	48	30	24	25	1	5	0	0	0	0	0	0	0	0	0	0	0	0	0	0	0	0	0	0	0	0	0	0	0	0	0	0	0	0	0	0	0	0	0	0	0	0	0	0	0	0	0	0	0	0	0	0	0	0	0	0	0	0	0	0	0	0	0	0	0	0	0	0	0	0	0	0	0	0	0	0	0	0	0	0	0	0	0	0	0	0	0	0	1	0	1	3	2	5	5	7	8	15	40	43	58	67	64	93	108	83	104	97	85	97	91	116	81	104	112	104	87	117	80	108	114	95	100	92	99	89	99	109	91	113	103	99	97	105	
10.56	99	102	126	92	96	91	87	104	110	119	95	108	96	114	109	83	100	72	96	100	107	98	103	91	87	91	122	107	94	97	111	105	94	95	94	103	104	95	118	108	79	96	107	99	115	104	97	93	94	127	86	91	101	91	96	97	95	105	97	87	96	102	78	78	89	102	58	38	40	31	13	2	3	0	0	0	0	0	0	0	0	0	0	0	0	0	0	0	0	0	0	0	0	0	0	0	0	0	0	0	0	0	0	0	0	0	0	0	0	0	0	0	0	0	0	0	0	0	0	0	0	0	0	0	0	0	0	0	0	0	0	0	0	0	0	0	0	0	0	0	0	0	0	0	0	0	0	0	0	0	0	0	0	0	0	1	1	1	2	2	2	4	9	6	24	32	47	54	62	67	99	88	102	94	93	91	109	89	87	101	96	119	103	104	96	104	110	102	94	87	111	89	90	116	102	100	99	87	107	107	
11.04	114	100	105	107	89	99	92	87	124	112	105	100	107	92	105	87	84	102	93	99	95	108	98	101	91	92	110	107	92	92	126	100	86	99	100	88	98	103	117	120	89	101	88	99	113	91	115	92	89	106	106	101	83	104	90	99	98	110	97	100	82	95	92	86	106	94	62	54	57	38	20	9	4	1	0	0	0	0	0	0	0	0	0	0	0	0	0	0	0	0	0	0	0	0	0	0	0	0	0	0	0	0	0	0	0	0	0	0	0	0	0	0	0	0	0	0	0	0	0	0	0	0	0	0	0	0	0	0	0	0	0	0	0	0	0	0	0	0	0	0	0	0	0	0	0	0	0	0	0	0	0	0	0	0	0	1	1	1	1	0	3	4	3	7	14	20	45	48	62	55	68	98	82	96	96	101	90	98	97	95	111	116	94	92	110	91	111	100	79	106	101	101	92	129	96	95	81	86	109	117	
11.52	100	113	102	99	96	98	104	78	121	118	112	101	89	106	98	90	98	88	94	86	109	102	106	102	90	89	114	96	94	116	114	80	105	83	101	107	90	103	114	108	120	76	110	95	89	112	108	83	99	100	105	94	102	102	93	94	79	117	105	91	99	100	89	85	103	106	87	70	54	54	38	8	10	3	2	0	0	0	0	0	0	0	0	0	0	0	0	0	0	0	0	0	0	0	0	0	0	0	0	0	0	0	0	0	0	0	0	0	0	0	0	0	0	0	0	0	0	0	0	0	0	0	0	0	0	0	0	0	0	0	0	0	0	0	0	0	0	0	0	0	0	0	0	0	0	0	0	0	0	0	0	0	0	0	0	1	2	0	1	1	0	3	3	5	8	17	30	33	46	42	61	85	89	86	90	95	99	101	109	89	105	97	108	92	103	105	98	105	91	104	93	92	92	127	100	106	78	92	109	111	
12	112	103	89	114	100	93	98	97	125	107	117	95	84	95	96	94	103	81	99	91	109	107	96	93	99	94	111	97	109	92	110	88	109	87	104	99	88	106	110	120	110	87	101	100	94	103	98	98	103	107	82	97	110	93	103	89	86	109	106	90	94	103	90	100	107	111	100	82	62	47	52	20	20	9	4	0	0	0	0	0	0	0	0	0	0	0	0	0	0	0	0	0	0	0	0	0	0	0	0	0	0	0	0	0	0	0	0	0	0	0	0	0	0	0	0	0	0	0	0	0	0	0	0	0	0	0	0	0	0	0	0	0	0	0	0	0	0	0	0	0	0	0	0	0	0	0	0	0	0	0	0	0	0	0	1	0	1	0	0	0	1	2	5	3	6	11	19	24	19	43	68	65	73	95	70	109	93	95	106	98	108	95	101	89	109	105	91	103	107	102	92	79	102	103	121	108	83	95	118	94	
12.48	105	107	103	110	90	102	93	117	118	98	102	97	88	93	104	102	94	87	95	99	97	105	95	100	101	98	114	93	91	103	102	106	99	77	106	87	116	93	109	112	101	111	94	92	108	104	98	113	87	97	100	107	91	103	91	98	85	101	111	92	98	96	100	89	105	115	110	89	63	61	53	52	22	13	9	5	0	0	0	0	0	0	0	0	0	0	0	0	0	0	0	0	0	0	0	0	0	0	0	0	0	0	0	0	0	0	0	0	0	0	0	0	0	0	0	0	0	0	0	0	0	0	0	0	0	0	0	0	0	0	0	0	0	0	0	0	0	0	0	0	0	0	0	0	0	0	0	0	0	0	0	0	0	0	0	0	0	0	0	2	1	3	3	3	3	7	7	25	13	34	47	61	64	85	77	94	95	102	100	107	100	94	95	102	108	110	79	99	110	103	96	93	89	109	114	99	94	89	100	112	
12.96	95	110	104	101	111	93	103	109	100	129	91	94	85	102	104	100	98	81	87	118	80	101	98	103	108	105	115	90	100	99	82	108	104	82	102	90	102	111	98	109	99	97	112	106	92	93	121	105	93	107	81	106	97	101	100	98	80	101	102	99	100	88	101	98	118	102	112	91	85	63	64	47	43	24	13	7	2	0	0	0	0	0	0	0	0	0	0	0	0	0	0	0	0	0	0	0	0	0	0	0	0	0	0	0	0	0	0	0	0	0	0	0	0	0	0	0	0	0	0	0	0	0	0	0	0	0	0	0	0	0	0	0	0	0	0	0	0	0	0	0	0	0	0	0	0	0	0	0	0	0	0	0	0	0	0	0	0	0	1	0	2	1	6	2	3	2	7	16	12	28	35	54	51	53	90	85	96	115	102	92	95	101	100	98	117	102	86	102	102	89	99	96	104	103	113	101	93	101	85	110	
13.44	89	110	100	96	116	106	99	117	98	108	95	104	88	96	110	99	83	92	94	114	87	105	97	101	97	107	116	102	93	94	99	90	112	89	93	107	92	106	103	91	106	91	113	108	89	101	113	97	103	101	85	117	90	109	92	94	89	80	111	102	111	92	97	105	101	103	119	98	92	71	75	49	49	37	20	9	7	1	0	0	0	0	0	0	0	0	0	0	0	0	0	0	0	0	0	0	0	0	0	0	0	0	0	0	0	0	0	0	0	0	0	0	0	0	0	0	0	0	0	0	0	0	0	0	0	0	0	0	0	0	0	0	0	0	0	0	0	0	0	0	0	0	0	0	0	0	0	0	0	0	0	0	0	0	0	0	0	0	0	1	0	1	3	1	1	4	7	10	8	17	34	36	51	50	66	92	91	118	92	102	96	108	99	104	101	92	99	97	106	91	104	88	100	117	102	112	78	92	103	104	
13.92	97	93	114	96	105	97	109	113	107	102	104	96	93	93	111	102	90	87	88	113	101	107	89	88	109	98	111	115	98	82	102	100	101	92	100	82	106	112	90	93	108	90	116	102	93	122	99	97	100	97	89	109	114	92	100	80	92	92	103	98	118	96	93	106	116	104	106	106	87	90	69	64	61	44	24	21	13	3	0	0	0	0	0	0	0	0	0	0	0	0	0	0	0	0	0	0	0	0	0	0	0	0	0	0	0	0	0	0	0	0	0	0	0	0	0	0	0	0	0	0	0	0	0	0	0	0	0	0	0	0	0	0	0	0	0	0	0	0	0	0	0	0	0	0	0	0	0	0	0	0	0	0	0	0	0	0	0	0	0	0	1	0	2	2	2	4	1	6	11	11	24	20	32	52	63	79	95	96	102	103	101	113	89	96	107	96	106	95	93	92	104	104	92	97	112	92	107	98	104	96	
14.4	105	85	103	97	114	93	112	99	118	100	105	103	95	81	111	98	102	100	80	110	97	100	107	87	113	87	110	105	115	84	111	83	96	101	86	103	103	109	92	89	93	106	107	108	100	122	83	105	94	101	81	123	129	87	95	79	86	86	104	100	98	122	86	115	102	117	98	103	99	92	82	68	59	61	43	24	23	13	3	0	0	0	0	0	0	0	0	0	0	0	0	0	0	0	0	0	0	0	0	0	0	0	0	0	0	0	0	0	0	0	0	0	0	0	0	0	0	0	0	0	0	0	0	0	0	0	0	0	0	0	0	0	0	0	0	0	0	0	0	0	0	0	0	0	0	0	0	0	0	0	0	0	0	0	0	0	0	0	0	1	0	0	3	1	2	1	1	5	8	7	12	23	21	41	48	79	74	91	113	91	102	106	94	97	97	119	88	97	95	94	110	89	87	115	99	93	103	108	100	99	
14.88	108	86	99	99	95	101	123	98	111	108	94	107	96	92	105	99	108	83	89	104	98	105	100	94	103	94	99	111	115	88	106	98	96	100	92	92	113	104	90	90	96	108	102	99	109	109	107	95	93	99	85	110	117	108	102	81	82	96	101	86	106	107	95	102	124	113	111	87	98	108	79	77	64	68	51	34	44	16	12	3	0	0	0	0	0	0	0	0	0	0	0	0	0	0	0	0	0	0	0	0	0	0	0	0	0	0	0	0	0	0	0	0	0	0	0	0	0	0	0	0	0	0	0	0	0	0	0	0	0	0	0	0	0	0	0	0	0	0	0	0	0	0	0	0	0	0	0	0	0	0	0	0	0	0	0	0	0	0	1	0	0	0	2	2	1	1	2	2	5	4	5	13	17	29	30	64	72	81	87	114	94	104	97	107	99	105	97	93	93	110	99	84	97	98	119	102	91	98	93	111	
15.36	90	101	104	98	95	113	105	94	117	102	95	109	100	92	100	105	99	89	100	108	94	88	99	102	96	110	107	103	97	91	109	109	99	86	106	95	111	93	85	95	109	83	108	107	106	116	97	83	109	99	92	111	107	111	101	87	80	95	95	96	98	107	107	106	110	113	108	93	110	98	80	80	69	77	62	58	36	35	11	7	2	0	0	0	0	0	0	0	0	0	0	0	0	0	0	0	0	0	0	0	0	0	0	0	0	0	0	0	0	0	0	0	0	0	0	0	0	0	0	0	0	0	0	0	0	0	0	0	0	0	0	0	0	0	0	0	0	0	0	0	0	0	0	0	0	0	0	0	0	0	0	0	0	0	0	0	0	0	0	1	0	1	0	0	0	0	2	2	0	7	7	11	15	19	29	43	54	69	94	96	97	105	116	104	94	90	100	87	110	108	102	88	93	97	113	101	94	99	103	99	
15.84	91	100	92	105	106	97	124	92	116	86	129	77	89	120	88	92	111	93	88	105	103	88	99	101	103	108	108	107	88	87	108	112	98	99	90	103	109	105	85	90	89	92	113	121	105	104	89	109	90	108	92	101	110	94	102	103	98	80	103	97	92	98	114	106	105	118	112	98	94	105	82	75	81	90	76	64	59	37	15	11	8	0	0	0	0	0	0	0	0	0	0	0	0	0	0	0	0	0	0	0	0	0	0	0	0	0	0	0	0	0	0	0	0	0	0	0	0	0	0	0	0	0	0	0	0	0	0	0	0	0	0	0	0	0	0	0	0	0	0	0	0	0	0	0	0	0	0	0	0	0	0	0	0	0	0	0	0	0	0	1	0	0	1	0	0	0	0	1	3	2	2	11	11	11	16	32	40	71	65	102	111	105	100	106	92	96	90	98	99	107	105	95	89	111	104	98	89	93	110	101	
16.32	97	93	96	102	110	97	113	105	110	107	100	84	89	113	105	78	107	101	97	86	108	97	98	96	109	111	106	96	104	91	91	110	106	95	109	94	109	90	87	100	88	99	99	122	105	107	96	99	92	111	91	101	88	112	102	104	91	93	86	101	99	110	83	125	125	109	101	100	96	93	89	96	72	85	91	70	65	39	41	24	10	2	0	0	0	0	0	0	0	0	0	0	0	0	0	0	0	0	0	0	0	0	0	0	0	0	0	0	0	0	0	0	0	0	0	0	0	0	0	0	0	0	0	0	0	0	0	0	0	0	0	0	0	0	0	0	0	0	0	0	0	0	0	0	0	0	0	0	0	0	0	0	0	0	0	0	0	0	0	1	0	0	1	0	0	0	0	0	1	0	2	6	8	13	11	22	41	51	58	84	104	100	101	114	95	89	87	97	106	112	100	82	102	91	126	96	95	83	107	105	
16.8	93	95	103	89	116	94	113	120	90	114	86	97	92	116	103	91	92	91	104	100	101	105	90	100	108	105	98	101	102	104	96	102	97	112	103	92	99	106	92	86	83	106	109	109	124	81	102	104	77	117	106	79	97	119	92	106	95	93	95	82	98	116	112	112	106	107	115	98	96	84	109	83	91	72	88	93	55	61	48	33	18	6	5	1	0	0	0	0	0	0	0	0	0	0	0	0	0	0	0	0	0	0	0	0	0	0	0	0	0	0	0	0	0	0	0	0	0	0	0	0	0	0	0	0	0	0	0	0	0	0	0	0	0	0	0	0	0	0	0	0	0	0	0	0	0	0	0	0	0	0	0	0	0	0	0	0	0	0	0	1	0	0	1	0	0	0	0	0	1	0	4	1	7	7	9	22	28	43	53	68	102	90	99	94	104	105	90	92	98	101	93	115	80	88	125	99	102	84	105	108	
17.28	105	87	95	93	115	103	104	111	114	89	101	89	99	109	96	104	85	103	97	96	101	108	97	87	116	104	102	104	102	82	103	114	86	101	125	92	101	94	101	82	85	107	106	114	113	85	100	100	90	113	107	80	101	114	94	106	84	111	81	88	98	116	99	121	123	96	117	88	96	84	108	87	86	84	99	81	78	79	52	47	29	17	10	4	2	0	0	0	0	0	0	0	0	0	0	0	0	0	0	0	0	0	0	0	0	0	0	0	0	0	0	0	0	0	0	0	0	0	0	0	0	0	0	0	0	0	0	0	0	0	0	0	0	0	0	0	0	0	0	0	0	0	0	0	0	0	0	0	0	0	0	0	0	0	0	0	0	0	0	0	1	0	0	0	0	0	0	0	0	1	2	5	2	4	4	16	16	29	44	62	84	96	74	89	106	94	102	89	98	95	104	103	88	107	99	101	112	91	110	95	
17.76	97	96	90	98	114	107	103	96	109	98	97	99	110	106	96	98	101	88	87	105	84	101	107	120	103	105	104	96	96	96	110	104	82	101	110	98	98	104	100	93	77	102	118	100	111	97	98	84	103	103	105	86	99	118	99	98	97	96	93	93	92	111	102	123	121	97	114	108	81	87	93	104	85	99	87	79	94	68	85	51	41	29	19	9	3	2	0	0	0	0	0	0	0	0	0	0	0	0	0	0	0	0	0	0	0	0	0	0	0	0	0	0	0	0	0	0	0	0	0	0	0	0	0	0	0	0	0	0	0	0	0	0	0	0	0	0	0	0	0	0	0	0	0	0	0	0	0	0	0	0	0	0	0	0	0	0	0	0	0	0	0	0	0	0	0	0	0	0	0	2	0	3	3	1	5	5	16	25	34	47	51	94	80	76	90	107	81	109	106	100	92	96	103	94	104	102	116	89	104	97	
18.24	96	89	88	107	119	111	96	100	104	93	112	93	112	111	84	86	106	101	94	98	87	101	102	109	98	123	107	92	87	98	107	99	98	91	105	107	100	112	83	98	85	101	110	114	112	89	102	89	93	99	92	106	100	109	105	101	93	95	93	94	100	94	112	110	139	97	85	116	90	88	97	104	97	72	114	79	87	85	92	66	57	35	23	16	6	9	0	0	0	0	0	0	0	0	0	0	0	0	0	0	0	0	0	0	0	0	0	0	0	0	0	0	0	0	0	0	0	0	0	0	0	0	0	0	0	0	0	0	0	0	0	0	0	0	0	0	0	0	0	0	0	0	0	0	0	0	0	0	0	0	0	0	0	0	0	0	0	0	0	0	0	0	0	0	0	0	0	0	0	0	0	3	2	4	1	8	8	18	26	30	53	63	61	84	81	102	93	100	99	99	98	103	92	94	119	101	107	92	110	93	
18.72	96	100	95	106	103	102	93	105	102	112	103	92	98	107	88	104	103	98	86	109	100	81	117	93	94	115	118	91	90	84	118	95	104	88	113	112	106	100	86	86	91	108	113	101	120	87	103	94	94	105	91	96	98	101	120	96	92	81	89	119	91	108	105	116	118	99	91	97	95	98	101	108	88	83	98	99	93	89	87	81	58	51	30	24	6	8	3	1	1	0	0	0	0	0	0	0	0	0	0	0	0	0	0	0	0	0	0	0	0	0	0	0	0	0	0	0	0	0	0	0	0	0	0	0	0	0	0	0	0	0	0	0	0	0	0	0	0	0	0	0	0	0	0	0	0	0	0	0	0	0	0	0	0	0	0	0	0	0	0	0	0	0	0	0	0	0	0	0	0	0	1	2	2	1	2	3	2	17	26	23	35	52	51	81	79	98	101	102	96	105	97	90	93	105	114	97	117	100	94	95	
19.2	94	94	120	100	94	98	92	108	104	106	116	83	87	102	110	113	94	97	91	98	97	96	102	109	92	97	120	90	95	76	121	119	77	105	91	121	105	104	84	97	95	90	123	104	100	107	94	105	96	90	95	93	96	99	118	108	105	78	83	95	111	104	104	125	101	96	101	106	92	92	111	91	109	77	101	88	103	95	90	82	61	64	37	43	20	16	5	3	2	0	0	1	0	0	0	0	0	0	0	0	0	0	0	0	0	0	0	0	0	0	0	0	0	0	0	0	0	0	0	0	0	0	0	0	0	0	0	0	0	0	0	0	0	0	0	0	0	0	0	0	0	0	0	0	0	0	0	0	0	0	0	0	0	0	0	0	0	0	0	0	0	0	0	0	0	0	0	0	0	0	0	1	3	1	1	1	10	7	20	17	24	43	50	60	78	89	97	92	100	107	86	94	89	108	104	108	101	102	108	95	
19.68	90	96	120	107	100	81	90	113	105	104	116	88	96	101	114	91	100	107	95	94	105	77	95	113	100	99	106	103	87	92	107	107	100	95	95	109	124	102	81	85	96	105	111	93	120	96	98	101	103	88	99	96	95	99	127	91	94	88	95	98	102	100	115	124	89	101	96	117	92	87	105	107	83	90	98	98	105	93	93	86	85	75	50	45	43	20	7	6	5	3	0	1	0	0	0	0	0	0	0	0	0	0	0	0	0	0	0	0	0	0	0	0	0	0	0	0	0	0	0	0	0	0	0	0	0	0	0	0	0	0	0	0	0	0	0	0	0	0	0	0	0	0	0	0	0	0	0	0	0	0	0	0	0	0	0	0	0	0	0	0	0	0	0	0	0	0	0	0	0	0	0	0	1	1	0	1	3	5	14	15	20	26	41	50	45	90	84	104	105	91	85	100	92	101	96	124	95	111	104	92	
20.16	87	100	130	100	93	94	88	115	103	94	106	97	101	101	112	94	109	92	93	98	97	93	95	104	103	104	107	97	96	94	103	101	100	103	97	118	105	107	75	89	95	94	107	112	109	111	82	111	95	95	104	79	98	108	112	105	85	100	108	81	100	111	98	97	121	101	98	107	103	92	90	106	96	102	85	95	107	99	109	71	91	79	68	61	43	33	20	14	10	4	1	1	0	0	0	0	0	0	0	0	0	0	0	0	0	0	0	0	0	0	0	0	0	0	0	0	0	0	0	0	0	0	0	0	0	0	0	0	0	0	0	0	0	0	0	0	0	0	0	0	0	0	0	0	0	0	0	0	0	0	0	0	0	0	0	0	0	0	0	0	0	0	0	0	0	0	0	0	0	0	1	0	0	0	0	0	3	4	6	10	18	17	32	37	44	74	73	98	84	99	81	95	118	85	96	111	111	96	106	102	
20.64	98	92	114	113	95	95	92	113	99	92	96	104	100	121	94	82	118	80	95	116	98	90	99	96	99	117	82	115	102	90	102	111	89	119	94	100	112	95	91	93	95	91	110	108	102	111	108	89	85	105	101	83	99	104	115	95	95	89	104	99	103	103	87	118	106	101	99	108	111	87	110	94	91	97	94	86	102	98	108	82	99	78	87	60	58	43	28	28	15	12	2	2	0	0	0	0	0	0	0	0	0	0	0	0	0	0	0	0	0	0	0	0	0	0	0	0	0	0	0	0	0	0	0	0	0	0	0	0	0	0	0	0	0	0	0	0	0	0	0	0	0	0	0	0	0	0	0	0	0	0	0	0	0	0	0	0	0	0	0	0	0	0	0	0	0	0	0	0	0	1	0	0	0	0	0	1	1	5	6	7	10	15	19	31	32	55	78	81	81	90	82	100	96	100	104	111	109	94	102	101	
21.12	100	97	112	103	90	104	91	117	111	90	98	97	97	105	94	102	110	91	82	118	97	82	106	93	104	112	90	114	104	95	85	117	103	112	89	98	101	98	100	89	97	101	98	101	114	113	101	92	82	101	93	90	98	109	127	91	91	103	95	100	85	108	103	113	103	94	109	109	104	96	93	98	96	96	95	105	102	99	94	84	88	97	87	66	75	47	43	48	24	18	5	1	2	0	0	0	0	0	0	0	0	0	0	0	0	0	0	0	0	0	0	0	0	0	0	0	0	0	0	0	0	0	0	0	0	0	0	0	0	0	0	0	0	0	0	0	0	0	0	0	0	0	0	0	0	0	0	0	0	0	0	0	0	0	0	0	0	0	0	0	0	0	0	0	0	0	0	0	0	0	0	0	0	0	0	0	1	3	4	2	10	12	15	17	25	47	67	68	78	69	87	114	86	95	107	106	98	103	90	114	
21.6	104	101	110	103	99	102	91	106	111	95	92	93	98	105	98	102	106	98	72	118	94	91	102	105	107	94	98	113	95	97	98	109	116	97	81	103	90	108	108	95	99	91	112	81	114	106	110	98	93	86	92	94	115	117	96	97	92	100	103	95	100	92	102	97	115	91	106	127	103	82	104	98	89	105	82	99	109	109	96	89	81	92	109	68	68	76	61	51	33	25	10	10	2	0	0	0	0	0	0	0	0	0	0	0	0	0	0	0	0	0	0	0	0	0	0	0	0	0	0	0	0	0	0	0	0	0	0	0	0	0	0	0	0	0	0	0	0	0	0	0	0	0	0	0	0	0	0	0	0	0	0	0	0	0	0	0	0	0	0	0	0	0	0	0	0	0	0	0	0	0	0	0	0	0	0	0	0	2	2	2	7	7	10	11	22	34	56	63	56	66	71	99	100	98	113	88	115	98	99	104	
22.08	96	100	114	114	105	87	100	103	110	95	105	79	97	104	94	106	111	85	87	100	101	91	94	121	103	92	114	95	91	92	108	106	113	112	85	94	112	95	107	101	78	101	106	95	95	103	115	95	98	93	93	92	120	115	95	97	100	90	101	91	103	111	91	98	112	99	111	103	108	84	95	100	94	106	95	94	94	106	97	102	94	78	104	80	92	89	65	53	48	37	21	13	7	0	1	0	0	0	0	0	0	0	0	0	0	0	0	0	0	0	0	0	0	0	0	0	0	0	0	0	0	0	0	0	0	0	0	0	0	0	0	0	0	0	0	0	0	0	0	0	0	0	0	0	0	0	0	0	0	0	0	0	0	0	0	0	0	0	0	0	0	0	0	0	0	0	0	0	0	0	0	0	0	0	0	0	0	0	2	6	4	6	6	7	16	32	35	43	45	51	78	87	96	112	98	89	102	108	95	105	
22.56	106	99	104	108	98	102	112	93	112	100	98	74	102	101	121	85	89	94	88	117	89	92	95	117	99	100	102	111	96	91	107	114	100	95	99	99	105	104	106	96	88	91	101	101	98	95	111	96	96	106	90	87	117	103	99	107	94	83	101	95	117	100	88	115	107	87	121	114	92	97	97	86	95	97	105	101	93	93	129	94	84	85	97	90	84	85	81	80	48	53	24	25	13	6	4	0	0	0	0	0	0	0	0	0	0	0	0	0	0	0	0	0	0	0	0	0	0	0	0	0	0	0	0	0	0	0	0	0	0	0	0	0	0	0	0	0	0	0	0	0	0	0	0	0	0	0	0	0	0	0	0	0	0	0	0	0	0	0	0	0	0	0	0	0	0	0	0	0	0	0	0	0	0	0	0	0	1	0	4	4	2	2	3	5	15	27	27	36	29	49	47	87	90	101	102	87	103	113	94	106	
23.04	102	109	97	110	105	97	105	107	108	89	87	103	99	89	106	100	88	98	89	113	89	94	95	107	115	91	118	93	105	93	92	115	103	91	106	93	119	101	94	101	89	105	89	102	92	113	99	105	89	111	90	90	99	104	99	113	84	97	100	104	98	102	105	87	112	96	115	128	88	99	90	91	85	114	95	96	102	96	118	100	83	89	100	95	93	93	92	73	69	49	40	31	25	19	3	3	0	0	0	0	0	0	0	0	0	0	0	0	0	0	0	0	0	0	0	0	0	0	0	0	0	0	0	0	0	0	0	0	0	0	0	0	0	0	0	0	0	0	0	0	0	0	0	0	0	0	0	0	0	0	0	0	0	0	0	0	0	0	0	0	0	0	0	0	0	0	0	0	0	0	0	0	0	0	1	0	0	2	2	2	0	3	1	6	11	11	23	19	28	36	44	75	67	97	91	103	106	105	104	99	
23.52	104	96	103	118	109	99	99	108	93	103	93	80	94	111	112	84	91	102	84	103	107	82	110	104	105	98	114	104	105	100	89	91	108	104	92	103	124	84	109	101	97	93	97	96	101	101	99	97	108	96	101	89	97	98	97	117	91	97	90	103	107	100	96	92	101	119	124	107	90	104	92	81	97	92	92	110	97	111	102	100	101	96	90	95	103	97	93	79	73	64	47	36	40	20	15	4	2	0	0	0	0	0	0	0	0	0	0	0	0	0	0	0	0	0	0	0	0	0	0	0	0	0	0	0	0	0	0	0	0	0	0	0	0	0	0	0	0	0	0	0	0	0	0	0	0	0	0	0	0	0	0	0	0	0	0	0	0	0	0	0	0	0	0	0	0	0	0	0	0	0	0	0	0	0	1	0	0	0	0	2	0	0	4	4	7	3	11	13	22	28	42	53	61	93	80	113	109	90	106	104	
24	108	102	87	121	103	106	96	93	118	94	99	85	81	120	102	91	87	100	97	103	89	105	104	99	100	103	110	113	90	116	82	104	110	95	95	100	103	101	102	99	98	94	88	110	96	106	101	104	101	96	100	88	107	84	103	110	88	88	116	107	98	93	97	96	116	110	115	103	103	85	96	102	82	93	101	93	112	117	101	95	99	95	80	108	103	108	88	76	86	64	42	52	61	24	19	9	6	0	0	0	0	0	0	0	0	0	0	0	0	0	0	0	0	0	0	0	0	0	0	0	0	0	0	0	0	0	0	0	0	0	0	0	0	0	0	0	0	0	0	0	0	0	0	0	0	0	0	0	0	0	0	0	0	0	0	0	0	0	0	0	0	0	0	0	0	0	0	0	0	0	0	0	0	1	0	0	0	0	0	0	1	1	0	2	8	5	8	10	16	28	33	45	52	73	90	95	104	102	94	106	
